<svg width="12" height="8" viewBox="0 0 12 8" fill="none" xmlns="http://www.w3.org/2000/svg">
<path fill-rule="evenodd" clip-rule="evenodd" d="M12 8L6.787 0.435429C6.386 -0.145143 5.614 -0.145143 5.214 0.435429L0 8H12Z" fill="#6B7682"/>
</svg>
