<svg width="24" height="24" viewBox="0 0 24 24" fill="none" xmlns="http://www.w3.org/2000/svg">
<path fill-rule="evenodd" clip-rule="evenodd" d="M8.69397 5.38254C9.71842 4.86509 10.8506 4.59693 11.9983 4.59993L11.9999 4.59993H12.4536C14.2619 4.70367 15.9691 5.4687 17.2501 6.7497C18.5311 8.0307 19.2961 9.73792 19.3999 11.5462V11.9999L19.3999 12.0015C19.4029 13.1492 19.1347 14.2814 18.6173 15.3059L18.6161 15.3081C18.0019 16.5372 17.0576 17.5709 15.889 18.2936C14.7204 19.0163 13.3737 19.3993 11.9997 19.3999L11.9983 19.3999C10.8506 19.4029 9.71842 19.1347 8.69397 18.6173C8.57563 18.5575 8.44083 18.5386 8.31061 18.5635L4.75551 19.2443L5.43629 15.6892C5.46122 15.559 5.44233 15.4242 5.38255 15.3059C4.8651 14.2814 4.59694 13.1492 4.59994 12.0015L4.59994 12.0001C4.60047 10.6261 4.98353 9.27943 5.70621 8.11084C6.42889 6.94225 7.46264 5.99794 8.69169 5.38369L8.69169 5.38369L8.69397 5.38254ZM8.15408 4.31085C9.34671 3.70868 10.6647 3.39657 12.0007 3.39993H12.4705C12.4815 3.39993 12.4925 3.40023 12.5035 3.40084C14.6128 3.5172 16.6049 4.40747 18.0986 5.90117C19.5923 7.39488 20.4826 9.38705 20.599 11.4963C20.5996 11.5073 20.5999 11.5183 20.5999 11.5293L20.5999 11.9983L20.5999 11.9991C20.6033 13.3352 20.2911 14.6531 19.6889 15.8458C18.9751 17.2736 17.8778 18.4746 16.5201 19.3142C15.1622 20.154 13.5974 20.5991 12.0008 20.5999L12.0015 20.5999L11.9999 19.9999L12.0001 20.5999H12.0008C10.7336 20.6031 9.48271 20.3225 8.33955 19.7798L4.11275 20.5891C3.91743 20.6265 3.71627 20.5647 3.57564 20.4241C3.43502 20.2835 3.37322 20.0823 3.41062 19.887L4.22003 15.6603C3.67732 14.5171 3.39673 13.2662 3.39994 11.999L3.39994 11.9983L3.99994 11.9999L3.39994 11.9997L3.39994 11.999C3.40068 10.4024 3.84585 8.83757 4.6856 7.47968C5.52525 6.12195 6.72623 5.02473 8.15408 4.31085ZM8 12.9999C8.55228 12.9999 9 12.5522 9 11.9999C9 11.4476 8.55228 10.9999 8 10.9999C7.44772 10.9999 7 11.4476 7 11.9999C7 12.5522 7.44772 12.9999 8 12.9999ZM13 11.9999C13 12.5522 12.5523 12.9999 12 12.9999C11.4477 12.9999 11 12.5522 11 11.9999C11 11.4476 11.4477 10.9999 12 10.9999C12.5523 10.9999 13 11.4476 13 11.9999ZM16 12.9999C16.5523 12.9999 17 12.5522 17 11.9999C17 11.4476 16.5523 10.9999 16 10.9999C15.4477 10.9999 15 11.4476 15 11.9999C15 12.5522 15.4477 12.9999 16 12.9999Z" fill="#6B7682"/>
</svg>
