<svg width="20" height="20" viewBox="0 0 20 20" fill="none" xmlns="http://www.w3.org/2000/svg">
<path d="M17.5 9.06262V10.9376H2.5V9.06262H17.5Z" fill="#6B7682"/>
<mask id="mask0" mask-type="alpha" maskUnits="userSpaceOnUse" x="2" y="9" width="16" height="2">
<path d="M17.5 9.06262V10.9376H2.5V9.06262H17.5Z" fill="white"/>
</mask>
<g mask="url(#mask0)">
</g>
</svg>
