<svg width="20" height="20" viewBox="0 0 20 20" fill="none" xmlns="http://www.w3.org/2000/svg">
<g opacity="0.5">
<path fill-rule="evenodd" clip-rule="evenodd" d="M9.0625 17.5001H10.9375V10.9376H17.5V9.06259H10.9375V2.50009H9.0625V9.06259H2.5V10.9376H9.0625V17.5001Z" fill="#6B7682"/>
<mask id="mask0" mask-type="alpha" maskUnits="userSpaceOnUse" x="2" y="2" width="16" height="16">
<path fill-rule="evenodd" clip-rule="evenodd" d="M9.0625 17.5001H10.9375V10.9376H17.5V9.06259H10.9375V2.50009H9.0625V9.06259H2.5V10.9376H9.0625V17.5001Z" fill="white"/>
</mask>
<g mask="url(#mask0)">
</g>
</g>
</svg>
