<svg width="24" height="24" viewBox="0 0 24 24" fill="none" xmlns="http://www.w3.org/2000/svg">
<path fill-rule="evenodd" clip-rule="evenodd" d="M12 1C18.0751 1 23 5.92487 23 12C23 18.0751 18.0751 23 12 23C5.92487 23 1 18.0751 1 12C1 5.92487 5.92487 1 12 1Z" fill="#26B9D1"/>
<path d="M10.8903 16.0007L6.70508 11.8155L7.74217 10.7784L10.8903 13.926L16.4829 8.33398L17.52 9.37107L10.8903 16.0007Z" fill="white"/>
</svg>
