<svg width="16" height="16" viewBox="0 0 16 16" fill="none" xmlns="http://www.w3.org/2000/svg">
<path d="M13.1465 5.14648L13.8536 5.85359L8.50004 11.2071L3.14648 5.85359L3.85359 5.14648L8.50004 9.79304L13.1465 5.14648Z" fill="#2C3238"/>
<mask id="mask0" mask-type="alpha" maskUnits="userSpaceOnUse" x="3" y="5" width="11" height="7">
<path d="M13.1465 5.14648L13.8536 5.85359L8.50004 11.2071L3.14648 5.85359L3.85359 5.14648L8.50004 9.79304L13.1465 5.14648Z" fill="white"/>
</mask>
<g mask="url(#mask0)">
</g>
</svg>
