<svg width="360" height="141" viewBox="0 0 360 141" fill="none" xmlns="http://www.w3.org/2000/svg">
<rect width="360" height="141" fill="url(#paint0_linear)"/>
<rect width="360" height="141" stroke="#DCDCE2"/>
<defs>
<linearGradient id="paint0_linear" x1="42.5" y1="-37.7324" x2="336.772" y2="210.569" gradientUnits="userSpaceOnUse">
<stop stop-color="#35DE8D"/>
<stop offset="1" stop-color="#209CAD"/>
</linearGradient>
</defs>
</svg>
